Aiden Sutherland’s Data Analysis Portfolio - cdcdata-exercise
…
   Month count percentage
   <int> <int>      <dbl>
 1     1  1920       8.93
 2     2  1778       8.27
 3     3  1605       7.47
 4     4  1566       7.29
 5     5  1667       7.75
 6     6  1713       7.97
 7     7  1866       8.68
 8     8  2130       9.91
 9     9  2202      10.2 
10    10  1763       8.2 
11    11  1634       7.6 
12    12  1652       7.69
# A tibble: 53 × 3
   State                count percentage
   <chr>                <int>      <dbl>
 1 Alabama                394       1.83
 2 Alaska                 360       1.67
 3 Arizona                499       2.32
 4 Arkansas               384       1.79
 5 California             551       2.56
 6 Colorado               407       1.89
 7 Connecticut            415       1.93
 8 Delaware               356       1.66
 9 District of Columbia   286       1.33
10 Florida                434       2.02
# ℹ 43 more rows
…
